{
  "sections": {
    "slideshow": {
      "type": "slideshow",
      "blocks": {
        "slide-0": {
          "type": "image",
          "settings": {
            "image": "shopify:\/\/shop_images\/Stait_HP_1.jpg",
            "mobile_image": "shopify:\/\/shop_images\/HP-m.jpg",
            "apply_overlay": false,
            "content_position": "bottomLeft",
            "subheading": "STAIT helps you restore and rediscover your best ever.",
            "title": "ELEVATE YOUR EVERYDAY",
            "button_1_text": "GET STAIT",
            "button_1_link": "shopify:\/\/collections\/all",
            "button_2_text": "",
            "button_2_link": "#"
          }
        },
        "2df1804b-4295-46c4-b15d-039cc7e03cfc": {
          "type": "image",
          "settings": {
            "image": "shopify:\/\/shop_images\/HP_2.jpg",
            "mobile_image": "shopify:\/\/shop_images\/HP2-m_1.jpg",
            "apply_overlay": true,
            "content_position": "bottomLeft",
            "subheading": "STAIT helps you restore and rediscover your best ever.",
            "title": "ELEVATE YOUR EVERYDAY",
            "button_1_text": "GET STAIT",
            "button_1_link": "shopify:\/\/collections\/all",
            "button_2_text": "",
            "button_2_link": ""
          }
        }
      },
      "block_order": [
        "slide-0",
        "2df1804b-4295-46c4-b15d-039cc7e03cfc"
      ],
      "settings": {
        "show_fullscreen": false,
        "show_arrow": false,
        "autoplay": true,
        "cycle_speed": 3,
        "text_color": "#ffffff",
        "button_color": "#363636",
        "button_background": "#ffffff"
      }
    },
    "featured-collections": {
      "type": "featured-collections",
      "blocks": {
        "featured-collection-0": {
          "type": "collection",
          "settings": {
            "collection": "kits",
            "title": "EVERYTHING YOU NEED, NOTHING YOU DON'T",
            "grid_items_count": 4,
            "button_text": "SEE ALL PRODUCTS"
          }
        },
        "1b510054-5722-4fb7-8ec6-88781dc68361": {
          "type": "collection",
          "disabled": true,
          "settings": {
            "collection": "frontpage",
            "title": "CATEGORY",
            "grid_items_count": 8,
            "button_text": "View all products"
          }
        }
      },
      "block_order": [
        "featured-collection-0",
        "1b510054-5722-4fb7-8ec6-88781dc68361"
      ],
      "settings": {
        "title": "",
        "layout_mode": "carousel",
        "show_product_info": true,
        "show_vendor": false,
        "show_color_swatch": false,
        "grid_mobile_items_per_row": "2",
        "grid_desktop_items_per_row": 4
      }
    },
    "16437097776d6695a7": {
      "type": "slideshow",
      "blocks": {
        "164370977778d80281-0": {
          "type": "image",
          "settings": {
            "image": "shopify:\/\/shop_images\/HP_horizontal.jpg",
            "mobile_image": "shopify:\/\/shop_images\/FF-bottom-m.jpg",
            "apply_overlay": true,
            "content_position": "bottomLeft",
            "subheading": "Bringing the best together.",
            "title": "MADE BY NATURE.<br>ELEVATED BY SCIENCE.",
            "button_1_text": "EXPLORE STAIT",
            "button_1_link": "",
            "button_2_text": "",
            "button_2_link": ""
          }
        }
      },
      "block_order": [
        "164370977778d80281-0"
      ],
      "settings": {
        "show_fullscreen": false,
        "show_arrow": false,
        "autoplay": false,
        "cycle_speed": 5,
        "text_color": "#ffffff",
        "button_color": "#363636",
        "button_background": "#ffffff"
      }
    },
    "16437171054538df96": {
      "type": "featured-collections",
      "blocks": {
        "68d16065-45aa-4b95-aee3-e9178fee9829": {
          "type": "collection",
          "settings": {
            "collection": "men-and-women",
            "title": "FIND YOUR IDEAL STAIT",
            "grid_items_count": 4,
            "button_text": ""
          }
        }
      },
      "block_order": [
        "68d16065-45aa-4b95-aee3-e9178fee9829"
      ],
      "settings": {
        "title": "Made for men and women",
        "layout_mode": "carousel",
        "show_product_info": true,
        "show_vendor": false,
        "show_color_swatch": false,
        "grid_mobile_items_per_row": "2",
        "grid_desktop_items_per_row": 4
      }
    },
    "timeline": {
      "type": "timeline",
      "blocks": {
        "item-0": {
          "type": "item",
          "settings": {
            "image": "shopify:\/\/shop_images\/HP_Textoverlay_1.jpg",
            "enable_mob_overlay": true,
            "apply_overlay": true,
            "title": "2018",
            "subheading": "Our Vision",
            "heading": "ANYONE CAN BE THEIR BEST, EVERY DAY",
            "content": "<p>STAIT enhances physical and cognitive performance, improved stress response, and healthy sleep with all-natural supplements that combine traditional medicine and modern science.<\/p><p>We believe that wherever you're at in life, it is possible to reach your best state.<\/p>"
          }
        },
        "f3e5d3df-9771-4b51-93e0-9e41c139a369": {
          "type": "item",
          "disabled": true,
          "settings": {
            "enable_mob_overlay": true,
            "apply_overlay": true,
            "title": "2019",
            "subheading": "Sub-heading",
            "heading": "Heading",
            "content": "<p>Add your own custom content to give more information about your store, availability details...<\/p>"
          }
        },
        "7b5ff2bd-ccf3-4605-957c-8721352135bf": {
          "type": "item",
          "disabled": true,
          "settings": {
            "enable_mob_overlay": true,
            "apply_overlay": true,
            "title": "2020",
            "subheading": "Sub-heading",
            "heading": "Heading",
            "content": "<p>Add your own custom content to give more information about your store, availability details...<\/p>"
          }
        },
        "1db00e07-1aad-44fe-9fbf-e5f3441ed0cc": {
          "type": "item",
          "disabled": true,
          "settings": {
            "enable_mob_overlay": true,
            "apply_overlay": true,
            "title": "2021",
            "subheading": "Sub-heading",
            "heading": "Heading",
            "content": "<p>Add your own custom content to give more information about your store, availability details...<\/p>"
          }
        },
        "2d7de793-c0ea-4ec8-8fc7-2b885f58856c": {
          "type": "item",
          "disabled": true,
          "settings": {
            "enable_mob_overlay": true,
            "apply_overlay": true,
            "title": "2022",
            "subheading": "Sub-heading",
            "heading": "Heading",
            "content": "<p>Add your own custom content to give more information about your store, availability details...<\/p>"
          }
        }
      },
      "block_order": [
        "item-0",
        "f3e5d3df-9771-4b51-93e0-9e41c139a369",
        "7b5ff2bd-ccf3-4605-957c-8721352135bf",
        "1db00e07-1aad-44fe-9fbf-e5f3441ed0cc",
        "2d7de793-c0ea-4ec8-8fc7-2b885f58856c"
      ],
      "settings": {
        "text_color": "#ffffff"
      }
    },
    "blog-posts": {
      "type": "blog-posts",
      "blocks": {
        "blog-0": {
          "type": "blog",
          "settings": {
            "blog": "news"
          }
        }
      },
      "block_order": [
        "blog-0"
      ],
      "settings": {
        "subheading": "STAIT Blog",
        "title": "LATEST ARTICLES",
        "show_category": false,
        "button_link": "",
        "button_text": "View all articles"
      }
    },
    "16437295474515b3dc": {
      "type": "image-with-text-block",
      "settings": {
        "image": "shopify:\/\/shop_images\/Waves-m.jpg",
        "background": "#ffffff",
        "text_color": "#1c1b1b",
        "block_size": "normal",
        "title": "ALL-NATURAL.<br>CLINICALLY-FORMULATED.",
        "content": "<p>With our science-backed formulas containing active ingredients, STAIT boosts energy, performance and mood in men and women.<\/p><p>STAIT is rigorously tested to ensure purity and potency.<\/p>",
        "button_label": "",
        "button_link": "",
        "show_parallax": false
      }
    },
    "16437302016feee10f": {
      "type": "text-with-image",
      "disabled": true,
      "settings": {
        "subheading": "",
        "title": "With our science-backed formulas containing active ingredients, STAIT boosts energy, performance and mood in men and women.",
        "image_position": "right",
        "content": "",
        "link_text": "",
        "link_url": ""
      }
    },
    "featured-product": {
      "type": "featured-product",
      "blocks": {
        "product-meta": {
          "type": "product_meta",
          "settings": {
            "show_vendor": false,
            "show_sku": false,
            "show_product_rating": false,
            "show_taxes_included": false
          }
        },
        "share-buttons": {
          "type": "share_buttons",
          "disabled": true,
          "settings": {}
        },
        "variant-selector": {
          "type": "variant_selector",
          "settings": {
            "selector_mode": "dropdown",
            "show_color_swatch": false,
            "show_color_carousel": false,
            "size_chart": ""
          }
        },
        "8d464f9b-16ff-4ce1-ae3b-09881709903f": {
          "type": "quantity_selector",
          "settings": {
            "show_label": false
          }
        },
        "buy-buttons": {
          "type": "buy_buttons",
          "settings": {
            "show_price_in_button": false,
            "show_payment_button": true
          }
        }
      },
      "block_order": [
        "product-meta",
        "share-buttons",
        "variant-selector",
        "8d464f9b-16ff-4ce1-ae3b-09881709903f",
        "buy-buttons"
      ],
      "settings": {
        "subheading": "",
        "title": "FEATURED PRODUCT",
        "show_headings_on_mobile": true,
        "product": "stait-superfoods"
      }
    },
    "1645569210bd8e4ea3": {
      "type": "featured-icon",
      "disabled": true,
      "blocks": {
        "9917e2b1-0487-4068-8e8c-b0a84ad55ba0": {
          "type": "block",
          "settings": {
            "image": "shopify:\/\/shop_images\/Gruppe_104.png"
          }
        },
        "e44c78b3-80cf-43ad-b29e-a093d7fbf2ab": {
          "type": "block",
          "settings": {
            "image": "shopify:\/\/shop_images\/Gruppe_104.png"
          }
        },
        "d0a43162-dbbc-4e5e-8129-6381511e8d72": {
          "type": "block",
          "settings": {
            "image": "shopify:\/\/shop_images\/Gruppe_104.png"
          }
        },
        "92c00ed6-e255-4062-9ecf-47c6c4788783": {
          "type": "block",
          "disabled": true,
          "settings": {}
        }
      },
      "block_order": [
        "9917e2b1-0487-4068-8e8c-b0a84ad55ba0",
        "e44c78b3-80cf-43ad-b29e-a093d7fbf2ab",
        "d0a43162-dbbc-4e5e-8129-6381511e8d72",
        "92c00ed6-e255-4062-9ecf-47c6c4788783"
      ],
      "settings": {
        "title": "With our science-backed formulas containing active ingredients, STAIT boosts energy, performance and mood in men and women."
      }
    },
    "164373020572035a47": {
      "type": "image-with-text-overlay",
      "settings": {
        "section_size": "large",
        "image": "shopify:\/\/shop_images\/HP_Bottom_Picture_2_1.jpg",
        "hide_image": false,
        "text_color": "#ffffff",
        "overlay_color": "#000000",
        "overlay_opacity": 46,
        "subheading": "Reaching your ideal STAIT",
        "title": "SUPPORTING YOUR BODY & MIND",
        "content": "<p>Feel your best ever from the ground up. Our mix of herbal extracts and minerals optimise hormone levels, providing enhanced physical and cognitive performance, improved stress response and healthy sleep.<\/p>"
      }
    }
  },
  "order": [
    "slideshow",
    "featured-collections",
    "16437097776d6695a7",
    "16437171054538df96",
    "timeline",
    "blog-posts",
    "16437295474515b3dc",
    "16437302016feee10f",
    "featured-product",
    "1645569210bd8e4ea3",
    "164373020572035a47"
  ]
}