{
  "sections": {
    "main": {
      "type": "main-page",
      "settings": {
        "show_large": false
      }
    },
    "164867265561248413": {
      "type": "custom-html",
      "disabled": true,
      "settings": {
        "subheading": "ELEVATE EVERYDAY",
        "title": "",
        "html": "Like nature, your natural state is powerful.\n\nWe’ve taken an all-natural science-backed\n\napproach to your personal well-being – to\n\nelevate your natural state.\n\n\n\nBy building a strong visual link to nature, the\n\nSTAIT brand can leverage and connect the\n\npowerful characteristics of nature to the value\n\nof our product through visual storytelling.\n\n.<p><\/p>"
      }
    }
  },
  "order": [
    "main",
    "164867265561248413"
  ]
}